{
  "images" : [
    {
      "idiom" : "universal",
      "filename" : "5.jpg",
      "scale" : "1x"
    },
    {
      "idiom" : "universal",
      "filename" : "3.6 Tutorial- start the success320x480.jpg",
      "scale" : "2x"
    },
    {
      "idiom" : "universal",
      "filename" : "3.6 Tutorial- start the success640x960.jpg",
      "scale" : "3x"
    }
  ],
  "info" : {
    "version" : 1,
    "author" : "xcode"
  }
}